<?xml version="1.0" encoding="UTF-8" standalone="no"?>
<svg
   xmlns:dc="http://purl.org/dc/elements/1.1/"
   xmlns:cc="http://creativecommons.org/ns#"
   xmlns:rdf="http://www.w3.org/1999/02/22-rdf-syntax-ns#"
   xmlns:svg="http://www.w3.org/2000/svg"
   xmlns="http://www.w3.org/2000/svg"
   width="63mm"
   height="63mm"
   version="1.1"
   viewBox="0 0 63 63"
   id="svg10">
  <defs
     id="defs14" />
  <metadata
     id="metadata2">
    <rdf:RDF>
      <cc:Work
         rdf:about="">
        <dc:format>image/svg+xml</dc:format>
        <dc:type
           rdf:resource="http://purl.org/dc/dcmitype/StillImage" />
        <dc:title></dc:title>
      </cc:Work>
    </rdf:RDF>
  </metadata>
  <g
     transform="translate(-78.704 -48.095)"
     fill="#666"
     id="g8"
     style="fill:#f2f2f2;fill-opacity:1">
    <path
       transform="matrix(.26458 0 0 .26458 78.704 48.095)"
       d="m119.05 139.05a119.06 119.06 0 0 0-117.36 99.055h234.72a119.06 119.06 0 0 0-117.36-99.055z"
       id="path4"
       style="fill:#f2f2f2;fill-opacity:1" />
    <circle
       cx="110.2"
       cy="69.012"
       r="17.121"
       stroke-width=".22655"
       id="circle6"
       style="fill:#f2f2f2;fill-opacity:1" />
  </g>
</svg>
